[
  {
    "customerQualificationName": "Parcours par defaut",
    "customerQualificationId": 1,
    "programParentDTOs": [
      {
        "access": 0,
        "dateEnd": "2030-01-01",
        "dateStart": "2008-01-01",
        "idProgramParent": 300,
        "location": {
          "idLocation": 1,
          "label": "National"
        },
        "campaign": {
          "campaignName": "Hors campagne",
          "dateEnd": "2019-01-01 00:00 AM UTC",
          "dateStart": "2008-01-01 00:00 AM UTC",
          "idCampaign": 1
        },
        "template": {
          "access": 0,
          "display": 0,
          "idTemplate": 64,
          "codePhase": "ENVOI",
          "templateName": "NO_DEMASQUAGE"
        }
      }
    ],
    "qualificationExpressionsDTOs": [
      {
        "communityFilter": 0,
        "refCategory": {
          "codeCategory": 2147483647,
          "libCategory": "Toutes catégories"
        },
        "communityResponse": 0,
        "idQualificationExpression": 1,
        "service": null
      }
    ]
  },
  {
    "customerQualificationName": "Parcours numero noir",
    "customerQualificationId": 2,
    "programParentDTOs": [
      {
        "access": 0,
        "dateEnd": "2030-01-01",
        "dateStart": "2008-01-01",
        "idProgramParent": 1,
        "location": {
          "idLocation": 1,
          "label": "National"
        },
        "campaign": {
          "campaignName": "Hors campagne",
          "dateEnd": "2019-01-01 00:00 AM UTC",
          "dateStart": "2008-01-01 00:00 AM UTC",
          "idCampaign": 1
        },
        "template": {
          "access": 0,
          "display": 0,
          "idTemplate": 2,
          "codePhase": "ENVOI",
          "templateName": "Template numero noir"
        }
      }
    ],
    "qualificationExpressionsDTOs": [
      {
        "communityFilter": 0,
        "refCategory": {
          "codeCategory": 2147483647,
          "libCategory": "Toutes catégories"
        },
        "communityResponse": 0,
        "idQualificationExpression": 2,
        "service": {
          "serviceDescription": "Numéros Noirs",
          "serviceDu": "30"
        }
      }
    ]
  },
  {
    "customerQualificationName": "Parcours 118 712 par défaut",
    "customerQualificationId": 3,
    "programParentDTOs": [
      {
        "access": 0,
        "dateEnd": "2030-01-01",
        "dateStart": "2008-01-01",
        "idProgramParent": 96,
        "location": {
          "idLocation": 1,
          "label": "National"
        },
        "campaign": {
          "campaignName": "Hors campagne",
          "dateEnd": "2019-01-01 00:00 AM UTC",
          "dateStart": "2008-01-01 00:00 AM UTC",
          "idCampaign": 1
        },
        "template": {
          "access": 1,
          "display": 1,
          "idTemplate": 6,
          "codePhase": "ENVOI",
          "templateName": "Template 118 712 par defaut"
        }
      },
      {
        "access": 1,
        "dateEnd": "2030-01-01",
        "dateStart": "2008-01-01",
        "idProgramParent": 815,
        "location": {
          "idLocation": 1,
          "label": "National"
        },
        "campaign": {
          "campaignName": "Hors campagne",
          "dateEnd": "2019-01-01 00:00 AM UTC",
          "dateStart": "2008-01-01 00:00 AM UTC",
          "idCampaign": 1
        },
        "template": {
          "access": 1,
          "display": 1,
          "idTemplate": 84,
          "codePhase": "TARIF",
          "templateName": "Tarif - Blanc - 118 712"
        }
      }
    ],
    "qualificationExpressionsDTOs": [
      {
        "communityFilter": 0,
        "refCategory": {
          "codeCategory": 2147483647,
          "libCategory": "Toutes catégories"
        },
        "communityResponse": 0,
        "idQualificationExpression": 482,
        "service": {
          "serviceDescription": "118 712 PSA",
          "serviceDu": "20"
        }
      }
    ]
  },
  {
    "customerQualificationName": "Parcours SMS query 118 712 par défaut",
    "customerQualificationId": 4,
    "programParentDTOs": [
      {
        "access": 0,
        "dateEnd": "2030-01-01",
        "dateStart": "2008-01-01",
        "idProgramParent": 301,
        "location": {
          "idLocation": 1,
          "label": "National"
        },
        "campaign": {
          "campaignName": "Hors campagne",
          "dateEnd": "2019-01-01 00:00 AM UTC",
          "dateStart": "2008-01-01 00:00 AM UTC",
          "idCampaign": 1
        },
        "template": {
          "access": 0,
          "display": 0,
          "idTemplate": 65,
          "codePhase": "ENVOI",
          "templateName": "SMS_QUERY_LIBRE"
        }
      }
    ],
    "qualificationExpressionsDTOs": [
      {
        "communityFilter": 0,
        "refCategory": {
          "codeCategory": 2147483647,
          "libCategory": "Toutes catégories"
        },
        "communityResponse": 0,
        "idQualificationExpression": 13,
        "service": {
          "serviceDescription": "ORANGE-SMSMO",
          "serviceDu": "31"
        }
      },
      {
        "communityFilter": 0,
        "refCategory": {
          "codeCategory": 2147483647,
          "libCategory": "Toutes catégories"
        },
        "communityResponse": 0,
        "idQualificationExpression": 14,
        "service": {
          "serviceDescription": "SFR-SMSMO",
          "serviceDu": "32"
        }
      },
      {
        "communityFilter": 0,
        "refCategory": {
          "codeCategory": 2147483647,
          "libCategory": "Toutes catégories"
        },
        "communityResponse": 0,
        "idQualificationExpression": 15,
        "service": {
          "serviceDescription": "BOUYGUES-SMSMO",
          "serviceDu": "33"
        }
      }
    ]
  },
  {
    "customerQualificationName": "Parcours Trusted Profile",
    "customerQualificationId": 23,
    "programParentDTOs": [
      {
        "access": 1,
        "dateEnd": "2030-06-30",
        "dateStart": "2010-06-30",
        "idProgramParent": 759,
        "location": {
          "idLocation": 1,
          "label": "National"
        },
        "campaign": {
          "campaignName": "Hors campagne",
          "dateEnd": "2019-01-01 00:00 AM UTC",
          "dateStart": "2008-01-01 00:00 AM UTC",
          "idCampaign": 1
        },
        "template": {
          "access": 1,
          "display": 1,
          "idTemplate": 81,
          "codePhase": "ACC",
          "templateName": "Accueil - Bienvenue au 118 712"
        }
      },
      {
        "access": 1,
        "dateEnd": "2019-10-06",
        "dateStart": "2009-10-06",
        "idProgramParent": 794,
        "location": {
          "idLocation": 1,
          "label": "National"
        },
        "campaign": {
          "campaignName": "Hors campagne",
          "dateEnd": "2019-01-01 00:00 AM UTC",
          "dateStart": "2008-01-01 00:00 AM UTC",
          "idCampaign": 1
        },
        "template": {
          "access": 1,
          "display": 1,
          "idTemplate": 79,
          "codePhase": "ENVOI",
          "templateName": "Trusted profile"
        }
      }
    ],
    "qualificationExpressionsDTOs": [
      {
        "communityFilter": 2,
        "refCategory": {
          "codeCategory": 0,
          "libCategory": "Occasionnel"
        },
        "communityResponse": 2,
        "idQualificationExpression": 568,
        "service": {
          "serviceDescription": "118 712 Free Mobile",
          "serviceDu": "25"
        }
      },
      {
        "communityFilter": 2,
        "refCategory": {
          "codeCategory": 10,
          "libCategory": "Régulier"
        },
        "communityResponse": 2,
        "idQualificationExpression": 569,
        "service": {
          "serviceDescription": "118 712 Free Mobile",
          "serviceDu": "25"
        }
      },
      {
        "communityFilter": 2,
        "refCategory": {
          "codeCategory": 20,
          "libCategory": "Gold"
        },
        "communityResponse": 2,
        "idQualificationExpression": 570,
        "service": {
          "serviceDescription": "118 712 Free Mobile",
          "serviceDu": "25"
        }
      },
      {
        "communityFilter": 2,
        "refCategory": {
          "codeCategory": 0,
          "libCategory": "Occasionnel"
        },
        "communityResponse": 2,
        "idQualificationExpression": 571,
        "service": {
          "serviceDescription": "118 712 Orange",
          "serviceDu": "73"
        }
      },
      {
        "communityFilter": 2,
        "refCategory": {
          "codeCategory": 10,
          "libCategory": "Régulier"
        },
        "communityResponse": 2,
        "idQualificationExpression": 572,
        "service": {
          "serviceDescription": "118 712 Orange",
          "serviceDu": "73"
        }
      },
      {
        "communityFilter": 2,
        "refCategory": {
          "codeCategory": 20,
          "libCategory": "Gold"
        },
        "communityResponse": 2,
        "idQualificationExpression": 573,
        "service": {
          "serviceDescription": "118 712 Orange",
          "serviceDu": "73"
        }
      },
      {
        "communityFilter": 2,
        "refCategory": {
          "codeCategory": 0,
          "libCategory": "Occasionnel"
        },
        "communityResponse": 2,
        "idQualificationExpression": 574,
        "service": {
          "serviceDescription": "118 712 Orange Reunion",
          "serviceDu": "75"
        }
      },
      {
        "communityFilter": 2,
        "refCategory": {
          "codeCategory": 10,
          "libCategory": "Régulier"
        },
        "communityResponse": 2,
        "idQualificationExpression": 575,
        "service": {
          "serviceDescription": "118 712 Orange Reunion",
          "serviceDu": "75"
        }
      },
      {
        "communityFilter": 2,
        "refCategory": {
          "codeCategory": 20,
          "libCategory": "Gold"
        },
        "communityResponse": 2,
        "idQualificationExpression": 576,
        "service": {
          "serviceDescription": "118 712 Orange Reunion",
          "serviceDu": "75"
        }
      },
      {
        "communityFilter": 2,
        "refCategory": {
          "codeCategory": 0,
          "libCategory": "Occasionnel"
        },
        "communityResponse": 2,
        "idQualificationExpression": 577,
        "service": {
          "serviceDescription": "118 712 OT Mobiles",
          "serviceDu": "76"
        }
      },
      {
        "communityFilter": 2,
        "refCategory": {
          "codeCategory": 10,
          "libCategory": "Régulier"
        },
        "communityResponse": 2,
        "idQualificationExpression": 578,
        "service": {
          "serviceDescription": "118 712 OT Mobiles",
          "serviceDu": "76"
        }
      },
      {
        "communityFilter": 2,
        "refCategory": {
          "codeCategory": 20,
          "libCategory": "Gold"
        },
        "communityResponse": 2,
        "idQualificationExpression": 579,
        "service": {
          "serviceDescription": "118 712 OT Mobiles",
          "serviceDu": "76"
        }
      },
      {
        "communityFilter": 2,
        "refCategory": {
          "codeCategory": 0,
          "libCategory": "Occasionnel"
        },
        "communityResponse": 2,
        "idQualificationExpression": 580,
        "service": {
          "serviceDescription": "118 712 Ticket telephone",
          "serviceDu": "79"
        }
      },
      {
        "communityFilter": 2,
        "refCategory": {
          "codeCategory": 10,
          "libCategory": "Régulier"
        },
        "communityResponse": 2,
        "idQualificationExpression": 581,
        "service": {
          "serviceDescription": "118 712 Ticket telephone",
          "serviceDu": "79"
        }
      },
      {
        "communityFilter": 2,
        "refCategory": {
          "codeCategory": 20,
          "libCategory": "Gold"
        },
        "communityResponse": 2,
        "idQualificationExpression": 582,
        "service": {
          "serviceDescription": "118 712 Ticket telephone",
          "serviceDu": "79"
        }
      },
      {
        "communityFilter": 2,
        "refCategory": {
          "codeCategory": 0,
          "libCategory": "Occasionnel"
        },
        "communityResponse": 2,
        "idQualificationExpression": 583,
        "service": {
          "serviceDescription": "118 712 SFR",
          "serviceDu": "90"
        }
      },
      {
        "communityFilter": 2,
        "refCategory": {
          "codeCategory": 10,
          "libCategory": "Régulier"
        },
        "communityResponse": 2,
        "idQualificationExpression": 584,
        "service": {
          "serviceDescription": "118 712 SFR",
          "serviceDu": "90"
        }
      },
      {
        "communityFilter": 2,
        "refCategory": {
          "codeCategory": 20,
          "libCategory": "Gold"
        },
        "communityResponse": 2,
        "idQualificationExpression": 585,
        "service": {
          "serviceDescription": "118 712 SFR",
          "serviceDu": "90"
        }
      },
      {
        "communityFilter": 2,
        "refCategory": {
          "codeCategory": 0,
          "libCategory": "Occasionnel"
        },
        "communityResponse": 2,
        "idQualificationExpression": 586,
        "service": {
          "serviceDescription": "118 712 Bouygues",
          "serviceDu": "91"
        }
      },
      {
        "communityFilter": 2,
        "refCategory": {
          "codeCategory": 10,
          "libCategory": "Régulier"
        },
        "communityResponse": 2,
        "idQualificationExpression": 587,
        "service": {
          "serviceDescription": "118 712 Bouygues",
          "serviceDu": "91"
        }
      },
      {
        "communityFilter": 2,
        "refCategory": {
          "codeCategory": 20,
          "libCategory": "Gold"
        },
        "communityResponse": 2,
        "idQualificationExpression": 588,
        "service": {
          "serviceDescription": "118 712 Bouygues",
          "serviceDu": "91"
        }
      }
    ]
  },
  {
    "customerQualificationName": "Parcours 118700",
    "customerQualificationId": 68,
    "programParentDTOs": [
      {
        "access": 1,
        "dateEnd": "2030-04-28",
        "dateStart": "2014-04-28",
        "idProgramParent": 817,
        "location": {
          "idLocation": 1,
          "label": "National"
        },
        "campaign": {
          "campaignName": "Hors campagne",
          "dateEnd": "2019-01-01 00:00 AM UTC",
          "dateStart": "2008-01-01 00:00 AM UTC",
          "idCampaign": 1
        },
        "template": {
          "access": 1,
          "display": 1,
          "idTemplate": 80,
          "codePhase": "ACC",
          "templateName": "Accueil - Bienvenue au 118 700"
        }
      }
    ],
    "qualificationExpressionsDTOs": [
      {
        "communityFilter": 0,
        "refCategory": {
          "codeCategory": 2147483647,
          "libCategory": "Toutes catégories"
        },
        "communityResponse": 0,
        "idQualificationExpression": 705,
        "service": {
          "serviceDescription": "118 700 Roamers",
          "serviceDu": "3"
        }
      },
      {
        "communityFilter": 0,
        "refCategory": {
          "codeCategory": 2147483647,
          "libCategory": "Toutes catégories"
        },
        "communityResponse": 0,
        "idQualificationExpression": 706,
        "service": {
          "serviceDescription": "118 700 Fixe FT",
          "serviceDu": "60"
        }
      },
      {
        "communityFilter": 0,
        "refCategory": {
          "codeCategory": 2147483647,
          "libCategory": "Toutes catégories"
        },
        "communityResponse": 0,
        "idQualificationExpression": 707,
        "service": {
          "serviceDescription": "118 700 IP FT",
          "serviceDu": "62"
        }
      },
      {
        "communityFilter": 0,
        "refCategory": {
          "codeCategory": 2147483647,
          "libCategory": "Toutes catégories"
        },
        "communityResponse": 0,
        "idQualificationExpression": 708,
        "service": {
          "serviceDescription": "118 700 DOM",
          "serviceDu": "63"
        }
      },
      {
        "communityFilter": 0,
        "refCategory": {
          "codeCategory": 2147483647,
          "libCategory": "Toutes catégories"
        },
        "communityResponse": 0,
        "idQualificationExpression": 709,
        "service": {
          "serviceDescription": "118 700 Publiphone Metropole/DOM",
          "serviceDu": "64"
        }
      },
      {
        "communityFilter": 0,
        "refCategory": {
          "codeCategory": 2147483647,
          "libCategory": "Toutes catégories"
        },
        "communityResponse": 0,
        "idQualificationExpression": 710,
        "service": {
          "serviceDescription": "118 700 Op France",
          "serviceDu": "66"
        }
      },
      {
        "communityFilter": 0,
        "refCategory": {
          "codeCategory": 2147483647,
          "libCategory": "Toutes catégories"
        },
        "communityResponse": 0,
        "idQualificationExpression": 711,
        "service": {
          "serviceDescription": "118 700 Carte FT",
          "serviceDu": "67"
        }
      },
      {
        "communityFilter": 0,
        "refCategory": {
          "codeCategory": 2147483647,
          "libCategory": "Toutes catégories"
        },
        "communityResponse": 0,
        "idQualificationExpression": 712,
        "service": {
          "serviceDescription": "118 700 St Pierre Miquelon",
          "serviceDu": "68"
        }
      },
      {
        "communityFilter": 0,
        "refCategory": {
          "codeCategory": 2147483647,
          "libCategory": "Toutes catégories"
        },
        "communityResponse": 0,
        "idQualificationExpression": 713,
        "service": {
          "serviceDescription": "118 700 Entraide Monaco",
          "serviceDu": "97"
        }
      },
      {
        "communityFilter": 0,
        "refCategory": {
          "codeCategory": 2147483647,
          "libCategory": "Toutes catégories"
        },
        "communityResponse": 0,
        "idQualificationExpression": 714,
        "service": {
          "serviceDescription": "118 700 Entraide Monde",
          "serviceDu": "98"
        }
      }
    ]
  },
  {
    "customerQualificationName": "Parcours 118712",
    "customerQualificationId": 69,
    "programParentDTOs": [
      {
        "access": 1,
        "dateEnd": "2030-04-28",
        "dateStart": "2014-04-28",
        "idProgramParent": 818,
        "location": {
          "idLocation": 1,
          "label": "National"
        },
        "campaign": {
          "campaignName": "Hors campagne",
          "dateEnd": "2019-01-01 00:00 AM UTC",
          "dateStart": "2008-01-01 00:00 AM UTC",
          "idCampaign": 1
        },
        "template": {
          "access": 1,
          "display": 1,
          "idTemplate": 81,
          "codePhase": "ACC",
          "templateName": "Accueil - Bienvenue au 118 712"
        }
      },
      {
        "access": 1,
        "dateEnd": "2030-04-28",
        "dateStart": "2014-04-28",
        "idProgramParent": 819,
        "location": {
          "idLocation": 1,
          "label": "National"
        },
        "campaign": {
          "campaignName": "Hors campagne",
          "dateEnd": "2019-01-01 00:00 AM UTC",
          "dateStart": "2008-01-01 00:00 AM UTC",
          "idCampaign": 1
        },
        "template": {
          "access": 1,
          "display": 1,
          "idTemplate": 126,
          "codePhase": "ENVOI",
          "templateName": "Auto-promo sms 118712"
        }
      }
    ],
    "qualificationExpressionsDTOs": [
      {
        "communityFilter": 0,
        "refCategory": {
          "codeCategory": 2147483647,
          "libCategory": "Toutes catégories"
        },
        "communityResponse": 0,
        "idQualificationExpression": 539,
        "service": {
          "serviceDescription": "118 712 IP FT",
          "serviceDu": "22"
        }
      },
      {
        "communityFilter": 0,
        "refCategory": {
          "codeCategory": 2147483647,
          "libCategory": "Toutes catégories"
        },
        "communityResponse": 0,
        "idQualificationExpression": 540,
        "service": {
          "serviceDescription": "118 712 Free Mobile",
          "serviceDu": "25"
        }
      },
      {
        "communityFilter": 0,
        "refCategory": {
          "codeCategory": 2147483647,
          "libCategory": "Toutes catégories"
        },
        "communityResponse": 0,
        "idQualificationExpression": 541,
        "service": {
          "serviceDescription": "Renseignement12 Orange",
          "serviceDu": "47"
        }
      },
      {
        "communityFilter": 0,
        "refCategory": {
          "codeCategory": 2147483647,
          "libCategory": "Toutes catégories"
        },
        "communityResponse": 0,
        "idQualificationExpression": 542,
        "service": {
          "serviceDescription": "Renseignement812 Réunion",
          "serviceDu": "48"
        }
      },
      {
        "communityFilter": 0,
        "refCategory": {
          "codeCategory": 2147483647,
          "libCategory": "Toutes catégories"
        },
        "communityResponse": 0,
        "idQualificationExpression": 543,
        "service": {
          "serviceDescription": "118 712 Roamers",
          "serviceDu": "7"
        }
      },
      {
        "communityFilter": 0,
        "refCategory": {
          "codeCategory": 2147483647,
          "libCategory": "Toutes catégories"
        },
        "communityResponse": 0,
        "idQualificationExpression": 544,
        "service": {
          "serviceDescription": "118 712 FT Fixe Metropole",
          "serviceDu": "70"
        }
      },
      {
        "communityFilter": 0,
        "refCategory": {
          "codeCategory": 2147483647,
          "libCategory": "Toutes catégories"
        },
        "communityResponse": 0,
        "idQualificationExpression": 545,
        "service": {
          "serviceDescription": "118 712 FT Fixe DOM",
          "serviceDu": "71"
        }
      },
      {
        "communityFilter": 0,
        "refCategory": {
          "codeCategory": 2147483647,
          "libCategory": "Toutes catégories"
        },
        "communityResponse": 0,
        "idQualificationExpression": 546,
        "service": {
          "serviceDescription": "118 712 FT Publiphone",
          "serviceDu": "72"
        }
      },
      {
        "communityFilter": 0,
        "refCategory": {
          "codeCategory": 2147483647,
          "libCategory": "Toutes catégories"
        },
        "communityResponse": 0,
        "idQualificationExpression": 547,
        "service": {
          "serviceDescription": "118 712 Orange",
          "serviceDu": "73"
        }
      },
      {
        "communityFilter": 0,
        "refCategory": {
          "codeCategory": 2147483647,
          "libCategory": "Toutes catégories"
        },
        "communityResponse": 0,
        "idQualificationExpression": 548,
        "service": {
          "serviceDescription": "118 712 Oranges Caraibes",
          "serviceDu": "74"
        }
      },
      {
        "communityFilter": 0,
        "refCategory": {
          "codeCategory": 2147483647,
          "libCategory": "Toutes catégories"
        },
        "communityResponse": 0,
        "idQualificationExpression": 549,
        "service": {
          "serviceDescription": "118 712 Orange Reunion",
          "serviceDu": "75"
        }
      },
      {
        "communityFilter": 0,
        "refCategory": {
          "codeCategory": 2147483647,
          "libCategory": "Toutes catégories"
        },
        "communityResponse": 0,
        "idQualificationExpression": 550,
        "service": {
          "serviceDescription": "118 712 OT Mobiles",
          "serviceDu": "76"
        }
      },
      {
        "communityFilter": 0,
        "refCategory": {
          "codeCategory": 2147483647,
          "libCategory": "Toutes catégories"
        },
        "communityResponse": 0,
        "idQualificationExpression": 551,
        "service": {
          "serviceDescription": "118 712 OT Fixes",
          "serviceDu": "77"
        }
      },
      {
        "communityFilter": 0,
        "refCategory": {
          "codeCategory": 2147483647,
          "libCategory": "Toutes catégories"
        },
        "communityResponse": 0,
        "idQualificationExpression": 552,
        "service": {
          "serviceDescription": "118 712 Ticket telephone",
          "serviceDu": "79"
        }
      },
      {
        "communityFilter": 0,
        "refCategory": {
          "codeCategory": 2147483647,
          "libCategory": "Toutes catégories"
        },
        "communityResponse": 0,
        "idQualificationExpression": 553,
        "service": {
          "serviceDescription": "118 712 RoamerOut",
          "serviceDu": "9"
        }
      },
      {
        "communityFilter": 0,
        "refCategory": {
          "codeCategory": 2147483647,
          "libCategory": "Toutes catégories"
        },
        "communityResponse": 0,
        "idQualificationExpression": 554,
        "service": {
          "serviceDescription": "118 712 SFR",
          "serviceDu": "90"
        }
      },
      {
        "communityFilter": 0,
        "refCategory": {
          "codeCategory": 2147483647,
          "libCategory": "Toutes catégories"
        },
        "communityResponse": 0,
        "idQualificationExpression": 555,
        "service": {
          "serviceDescription": "118 712 Bouygues",
          "serviceDu": "91"
        }
      },
      {
        "communityFilter": 0,
        "refCategory": {
          "codeCategory": 2147483647,
          "libCategory": "Toutes catégories"
        },
        "communityResponse": 0,
        "idQualificationExpression": 556,
        "service": {
          "serviceDescription": "118 712 FT Mayotte",
          "serviceDu": "94"
        }
      },
      {
        "communityFilter": 0,
        "refCategory": {
          "codeCategory": 2147483647,
          "libCategory": "Toutes catégories"
        },
        "communityResponse": 0,
        "idQualificationExpression": 557,
        "service": {
          "serviceDescription": "118 712 DU defaut",
          "serviceDu": "99"
        }
      }
    ]
  },
  {
    "customerQualificationName": "Service client",
    "customerQualificationId": 72,
    "programParentDTOs": [
      {
        "access": 1,
        "dateEnd": "2030-07-21",
        "dateStart": "2014-07-21",
        "idProgramParent": 822,
        "location": {
          "idLocation": 1,
          "label": "National"
        },
        "campaign": {
          "campaignName": "Hors campagne",
          "dateEnd": "2019-01-01 00:00 AM UTC",
          "dateStart": "2008-01-01 00:00 AM UTC",
          "idCampaign": 1
        },
        "template": {
          "access": 1,
          "display": 1,
          "idTemplate": 129,
          "codePhase": "ACC",
          "templateName": "Blanc"
        }
      }
    ],
    "qualificationExpressionsDTOs": [
      {
        "communityFilter": 12,
        "refCategory": {
          "codeCategory": 2147483647,
          "libCategory": "Toutes catégories"
        },
        "communityResponse": 12,
        "idQualificationExpression": 650,
        "service": {
          "serviceDescription": "118 712 IP FT",
          "serviceDu": "22"
        }
      },
      {
        "communityFilter": 12,
        "refCategory": {
          "codeCategory": 2147483647,
          "libCategory": "Toutes catégories"
        },
        "communityResponse": 12,
        "idQualificationExpression": 651,
        "service": {
          "serviceDescription": "118 712 Free Mobile",
          "serviceDu": "25"
        }
      },
      {
        "communityFilter": 12,
        "refCategory": {
          "codeCategory": 2147483647,
          "libCategory": "Toutes catégories"
        },
        "communityResponse": 12,
        "idQualificationExpression": 652,
        "service": {
          "serviceDescription": "118 700 Roamers",
          "serviceDu": "3"
        }
      },
      {
        "communityFilter": 12,
        "refCategory": {
          "codeCategory": 2147483647,
          "libCategory": "Toutes catégories"
        },
        "communityResponse": 12,
        "idQualificationExpression": 653,
        "service": {
          "serviceDescription": "Renseignement12 Orange",
          "serviceDu": "47"
        }
      },
      {
        "communityFilter": 12,
        "refCategory": {
          "codeCategory": 2147483647,
          "libCategory": "Toutes catégories"
        },
        "communityResponse": 12,
        "idQualificationExpression": 654,
        "service": {
          "serviceDescription": "Renseignement812 Réunion",
          "serviceDu": "48"
        }
      },
      {
        "communityFilter": 12,
        "refCategory": {
          "codeCategory": 2147483647,
          "libCategory": "Toutes catégories"
        },
        "communityResponse": 12,
        "idQualificationExpression": 655,
        "service": {
          "serviceDescription": "118 700 Fixe FT",
          "serviceDu": "60"
        }
      },
      {
        "communityFilter": 12,
        "refCategory": {
          "codeCategory": 2147483647,
          "libCategory": "Toutes catégories"
        },
        "communityResponse": 12,
        "idQualificationExpression": 656,
        "service": {
          "serviceDescription": "118 700 IP FT",
          "serviceDu": "62"
        }
      },
      {
        "communityFilter": 12,
        "refCategory": {
          "codeCategory": 2147483647,
          "libCategory": "Toutes catégories"
        },
        "communityResponse": 12,
        "idQualificationExpression": 657,
        "service": {
          "serviceDescription": "118 700 DOM",
          "serviceDu": "63"
        }
      },
      {
        "communityFilter": 12,
        "refCategory": {
          "codeCategory": 2147483647,
          "libCategory": "Toutes catégories"
        },
        "communityResponse": 12,
        "idQualificationExpression": 658,
        "service": {
          "serviceDescription": "118 700 Publiphone Metropole/DOM",
          "serviceDu": "64"
        }
      },
      {
        "communityFilter": 12,
        "refCategory": {
          "codeCategory": 2147483647,
          "libCategory": "Toutes catégories"
        },
        "communityResponse": 12,
        "idQualificationExpression": 659,
        "service": {
          "serviceDescription": "118 700 Op France",
          "serviceDu": "66"
        }
      },
      {
        "communityFilter": 12,
        "refCategory": {
          "codeCategory": 2147483647,
          "libCategory": "Toutes catégories"
        },
        "communityResponse": 12,
        "idQualificationExpression": 660,
        "service": {
          "serviceDescription": "118 700 Carte FT",
          "serviceDu": "67"
        }
      },
      {
        "communityFilter": 12,
        "refCategory": {
          "codeCategory": 2147483647,
          "libCategory": "Toutes catégories"
        },
        "communityResponse": 12,
        "idQualificationExpression": 661,
        "service": {
          "serviceDescription": "118 700 St Pierre Miquelon",
          "serviceDu": "68"
        }
      },
      {
        "communityFilter": 12,
        "refCategory": {
          "codeCategory": 2147483647,
          "libCategory": "Toutes catégories"
        },
        "communityResponse": 12,
        "idQualificationExpression": 662,
        "service": {
          "serviceDescription": "118 712 FT Fixe Metropole",
          "serviceDu": "70"
        }
      },
      {
        "communityFilter": 12,
        "refCategory": {
          "codeCategory": 2147483647,
          "libCategory": "Toutes catégories"
        },
        "communityResponse": 12,
        "idQualificationExpression": 663,
        "service": {
          "serviceDescription": "118 712 FT Fixe DOM",
          "serviceDu": "71"
        }
      },
      {
        "communityFilter": 12,
        "refCategory": {
          "codeCategory": 2147483647,
          "libCategory": "Toutes catégories"
        },
        "communityResponse": 12,
        "idQualificationExpression": 664,
        "service": {
          "serviceDescription": "118 712 FT Publiphone",
          "serviceDu": "72"
        }
      },
      {
        "communityFilter": 12,
        "refCategory": {
          "codeCategory": 2147483647,
          "libCategory": "Toutes catégories"
        },
        "communityResponse": 12,
        "idQualificationExpression": 665,
        "service": {
          "serviceDescription": "118 712 Orange",
          "serviceDu": "73"
        }
      },
      {
        "communityFilter": 12,
        "refCategory": {
          "codeCategory": 2147483647,
          "libCategory": "Toutes catégories"
        },
        "communityResponse": 12,
        "idQualificationExpression": 666,
        "service": {
          "serviceDescription": "118 712 Oranges Caraibes",
          "serviceDu": "74"
        }
      },
      {
        "communityFilter": 12,
        "refCategory": {
          "codeCategory": 2147483647,
          "libCategory": "Toutes catégories"
        },
        "communityResponse": 12,
        "idQualificationExpression": 667,
        "service": {
          "serviceDescription": "118 712 Orange Reunion",
          "serviceDu": "75"
        }
      },
      {
        "communityFilter": 12,
        "refCategory": {
          "codeCategory": 2147483647,
          "libCategory": "Toutes catégories"
        },
        "communityResponse": 12,
        "idQualificationExpression": 668,
        "service": {
          "serviceDescription": "118 712 OT Mobiles",
          "serviceDu": "76"
        }
      },
      {
        "communityFilter": 12,
        "refCategory": {
          "codeCategory": 2147483647,
          "libCategory": "Toutes catégories"
        },
        "communityResponse": 12,
        "idQualificationExpression": 669,
        "service": {
          "serviceDescription": "118 712 OT Fixes",
          "serviceDu": "77"
        }
      },
      {
        "communityFilter": 12,
        "refCategory": {
          "codeCategory": 2147483647,
          "libCategory": "Toutes catégories"
        },
        "communityResponse": 12,
        "idQualificationExpression": 670,
        "service": {
          "serviceDescription": "118 712 Ticket telephone",
          "serviceDu": "79"
        }
      },
      {
        "communityFilter": 12,
        "refCategory": {
          "codeCategory": 2147483647,
          "libCategory": "Toutes catégories"
        },
        "communityResponse": 12,
        "idQualificationExpression": 671,
        "service": {
          "serviceDescription": "118 712 SFR",
          "serviceDu": "90"
        }
      },
      {
        "communityFilter": 12,
        "refCategory": {
          "codeCategory": 2147483647,
          "libCategory": "Toutes catégories"
        },
        "communityResponse": 12,
        "idQualificationExpression": 672,
        "service": {
          "serviceDescription": "118 712 Bouygues",
          "serviceDu": "91"
        }
      },
      {
        "communityFilter": 12,
        "refCategory": {
          "codeCategory": 2147483647,
          "libCategory": "Toutes catégories"
        },
        "communityResponse": 12,
        "idQualificationExpression": 673,
        "service": {
          "serviceDescription": "118 712 FT Mayotte",
          "serviceDu": "94"
        }
      },
      {
        "communityFilter": 12,
        "refCategory": {
          "codeCategory": 2147483647,
          "libCategory": "Toutes catégories"
        },
        "communityResponse": 12,
        "idQualificationExpression": 674,
        "service": {
          "serviceDescription": "118 700 Entraide Monaco",
          "serviceDu": "97"
        }
      },
      {
        "communityFilter": 12,
        "refCategory": {
          "codeCategory": 2147483647,
          "libCategory": "Toutes catégories"
        },
        "communityResponse": 12,
        "idQualificationExpression": 675,
        "service": {
          "serviceDescription": "118 700 Entraide Monde",
          "serviceDu": "98"
        }
      },
      {
        "communityFilter": 12,
        "refCategory": {
          "codeCategory": 2147483647,
          "libCategory": "Toutes catégories"
        },
        "communityResponse": 12,
        "idQualificationExpression": 676,
        "service": {
          "serviceDescription": "118 712 DU defaut",
          "serviceDu": "99"
        }
      }
    ]
  },
  {
    "customerQualificationName": "Service international",
    "customerQualificationId": 73,
    "programParentDTOs": [
      {
        "access": 1,
        "dateEnd": "2030-07-21",
        "dateStart": "2014-07-21",
        "idProgramParent": 823,
        "location": {
          "idLocation": 1,
          "label": "National"
        },
        "campaign": {
          "campaignName": "Hors campagne",
          "dateEnd": "2019-01-01 00:00 AM UTC",
          "dateStart": "2008-01-01 00:00 AM UTC",
          "idCampaign": 1
        },
        "template": {
          "access": 1,
          "display": 1,
          "idTemplate": 129,
          "codePhase": "ACC",
          "templateName": "Blanc"
        }
      }
    ],
    "qualificationExpressionsDTOs": [
      {
        "communityFilter": 20,
        "refCategory": {
          "codeCategory": 2147483647,
          "libCategory": "Toutes catégories"
        },
        "communityResponse": 20,
        "idQualificationExpression": 677,
        "service": {
          "serviceDescription": "118 712 IP FT",
          "serviceDu": "22"
        }
      },
      {
        "communityFilter": 20,
        "refCategory": {
          "codeCategory": 2147483647,
          "libCategory": "Toutes catégories"
        },
        "communityResponse": 20,
        "idQualificationExpression": 678,
        "service": {
          "serviceDescription": "118 712 Free Mobile",
          "serviceDu": "25"
        }
      },
      {
        "communityFilter": 20,
        "refCategory": {
          "codeCategory": 2147483647,
          "libCategory": "Toutes catégories"
        },
        "communityResponse": 20,
        "idQualificationExpression": 679,
        "service": {
          "serviceDescription": "118 700 Roamers",
          "serviceDu": "3"
        }
      },
      {
        "communityFilter": 20,
        "refCategory": {
          "codeCategory": 2147483647,
          "libCategory": "Toutes catégories"
        },
        "communityResponse": 20,
        "idQualificationExpression": 680,
        "service": {
          "serviceDescription": "Renseignement12 Orange",
          "serviceDu": "47"
        }
      },
      {
        "communityFilter": 20,
        "refCategory": {
          "codeCategory": 2147483647,
          "libCategory": "Toutes catégories"
        },
        "communityResponse": 20,
        "idQualificationExpression": 681,
        "service": {
          "serviceDescription": "Renseignement812 Réunion",
          "serviceDu": "48"
        }
      },
      {
        "communityFilter": 20,
        "refCategory": {
          "codeCategory": 2147483647,
          "libCategory": "Toutes catégories"
        },
        "communityResponse": 20,
        "idQualificationExpression": 682,
        "service": {
          "serviceDescription": "118 700 Fixe FT",
          "serviceDu": "60"
        }
      },
      {
        "communityFilter": 20,
        "refCategory": {
          "codeCategory": 2147483647,
          "libCategory": "Toutes catégories"
        },
        "communityResponse": 20,
        "idQualificationExpression": 683,
        "service": {
          "serviceDescription": "118 700 IP FT",
          "serviceDu": "62"
        }
      },
      {
        "communityFilter": 20,
        "refCategory": {
          "codeCategory": 2147483647,
          "libCategory": "Toutes catégories"
        },
        "communityResponse": 20,
        "idQualificationExpression": 684,
        "service": {
          "serviceDescription": "118 700 DOM",
          "serviceDu": "63"
        }
      },
      {
        "communityFilter": 20,
        "refCategory": {
          "codeCategory": 2147483647,
          "libCategory": "Toutes catégories"
        },
        "communityResponse": 20,
        "idQualificationExpression": 685,
        "service": {
          "serviceDescription": "118 700 Publiphone Metropole/DOM",
          "serviceDu": "64"
        }
      },
      {
        "communityFilter": 20,
        "refCategory": {
          "codeCategory": 2147483647,
          "libCategory": "Toutes catégories"
        },
        "communityResponse": 20,
        "idQualificationExpression": 686,
        "service": {
          "serviceDescription": "118 700 Op France",
          "serviceDu": "66"
        }
      },
      {
        "communityFilter": 20,
        "refCategory": {
          "codeCategory": 2147483647,
          "libCategory": "Toutes catégories"
        },
        "communityResponse": 20,
        "idQualificationExpression": 687,
        "service": {
          "serviceDescription": "118 700 Carte FT",
          "serviceDu": "67"
        }
      },
      {
        "communityFilter": 20,
        "refCategory": {
          "codeCategory": 2147483647,
          "libCategory": "Toutes catégories"
        },
        "communityResponse": 20,
        "idQualificationExpression": 688,
        "service": {
          "serviceDescription": "118 700 St Pierre Miquelon",
          "serviceDu": "68"
        }
      },
      {
        "communityFilter": 20,
        "refCategory": {
          "codeCategory": 2147483647,
          "libCategory": "Toutes catégories"
        },
        "communityResponse": 20,
        "idQualificationExpression": 689,
        "service": {
          "serviceDescription": "118 712 FT Fixe Metropole",
          "serviceDu": "70"
        }
      },
      {
        "communityFilter": 20,
        "refCategory": {
          "codeCategory": 2147483647,
          "libCategory": "Toutes catégories"
        },
        "communityResponse": 20,
        "idQualificationExpression": 690,
        "service": {
          "serviceDescription": "118 712 FT Fixe DOM",
          "serviceDu": "71"
        }
      },
      {
        "communityFilter": 20,
        "refCategory": {
          "codeCategory": 2147483647,
          "libCategory": "Toutes catégories"
        },
        "communityResponse": 20,
        "idQualificationExpression": 691,
        "service": {
          "serviceDescription": "118 712 FT Publiphone",
          "serviceDu": "72"
        }
      },
      {
        "communityFilter": 20,
        "refCategory": {
          "codeCategory": 2147483647,
          "libCategory": "Toutes catégories"
        },
        "communityResponse": 20,
        "idQualificationExpression": 692,
        "service": {
          "serviceDescription": "118 712 Orange",
          "serviceDu": "73"
        }
      },
      {
        "communityFilter": 20,
        "refCategory": {
          "codeCategory": 2147483647,
          "libCategory": "Toutes catégories"
        },
        "communityResponse": 20,
        "idQualificationExpression": 693,
        "service": {
          "serviceDescription": "118 712 Oranges Caraibes",
          "serviceDu": "74"
        }
      },
      {
        "communityFilter": 20,
        "refCategory": {
          "codeCategory": 2147483647,
          "libCategory": "Toutes catégories"
        },
        "communityResponse": 20,
        "idQualificationExpression": 694,
        "service": {
          "serviceDescription": "118 712 Orange Reunion",
          "serviceDu": "75"
        }
      },
      {
        "communityFilter": 20,
        "refCategory": {
          "codeCategory": 2147483647,
          "libCategory": "Toutes catégories"
        },
        "communityResponse": 20,
        "idQualificationExpression": 695,
        "service": {
          "serviceDescription": "118 712 OT Mobiles",
          "serviceDu": "76"
        }
      },
      {
        "communityFilter": 20,
        "refCategory": {
          "codeCategory": 2147483647,
          "libCategory": "Toutes catégories"
        },
        "communityResponse": 20,
        "idQualificationExpression": 696,
        "service": {
          "serviceDescription": "118 712 OT Fixes",
          "serviceDu": "77"
        }
      },
      {
        "communityFilter": 20,
        "refCategory": {
          "codeCategory": 2147483647,
          "libCategory": "Toutes catégories"
        },
        "communityResponse": 20,
        "idQualificationExpression": 697,
        "service": {
          "serviceDescription": "118 712 Ticket telephone",
          "serviceDu": "79"
        }
      },
      {
        "communityFilter": 20,
        "refCategory": {
          "codeCategory": 2147483647,
          "libCategory": "Toutes catégories"
        },
        "communityResponse": 20,
        "idQualificationExpression": 698,
        "service": {
          "serviceDescription": "118 712 SFR",
          "serviceDu": "90"
        }
      },
      {
        "communityFilter": 20,
        "refCategory": {
          "codeCategory": 2147483647,
          "libCategory": "Toutes catégories"
        },
        "communityResponse": 20,
        "idQualificationExpression": 699,
        "service": {
          "serviceDescription": "118 712 Bouygues",
          "serviceDu": "91"
        }
      },
      {
        "communityFilter": 20,
        "refCategory": {
          "codeCategory": 2147483647,
          "libCategory": "Toutes catégories"
        },
        "communityResponse": 20,
        "idQualificationExpression": 700,
        "service": {
          "serviceDescription": "118 712 FT Mayotte",
          "serviceDu": "94"
        }
      },
      {
        "communityFilter": 20,
        "refCategory": {
          "codeCategory": 2147483647,
          "libCategory": "Toutes catégories"
        },
        "communityResponse": 20,
        "idQualificationExpression": 701,
        "service": {
          "serviceDescription": "118 700 Entraide Monaco",
          "serviceDu": "97"
        }
      },
      {
        "communityFilter": 20,
        "refCategory": {
          "codeCategory": 2147483647,
          "libCategory": "Toutes catégories"
        },
        "communityResponse": 20,
        "idQualificationExpression": 702,
        "service": {
          "serviceDescription": "118 700 Entraide Monde",
          "serviceDu": "98"
        }
      },
      {
        "communityFilter": 20,
        "refCategory": {
          "codeCategory": 2147483647,
          "libCategory": "Toutes catégories"
        },
        "communityResponse": 20,
        "idQualificationExpression": 703,
        "service": {
          "serviceDescription": "118 712 DU defaut",
          "serviceDu": "99"
        }
      }
    ]
  }
]