[
  {
    "access": 0,
    "display": 1,
    "idTemplate": 1,
    "codePhase": "ENVOI",
    "templateName": "Template par defaut"
  },
  {
    "access": 0,
    "display": 0,
    "idTemplate": 2,
    "codePhase": "ENVOI",
    "templateName": "Template numero noir"
  },
  {
    "access": 1,
    "display": 1,
    "idTemplate": 6,
    "codePhase": "ENVOI",
    "templateName": "Template 118 712 par defaut"
  },
  {
    "access": 1,
    "display": 1,
    "idTemplate": 7,
    "codePhase": "ENVOI",
    "templateName": "Template SMS QUERY 118 712 par défaut"
  },
  {
    "access": 0,
    "display": 0,
    "idTemplate": 64,
    "codePhase": "ENVOI",
    "templateName": "NO_DEMASQUAGE"
  },
  {
    "access": 0,
    "display": 0,
    "idTemplate": 65,
    "codePhase": "ENVOI",
    "templateName": "SMS_QUERY_LIBRE"
  },
  {
    "access": 1,
    "display": 1,
    "idTemplate": 78,
    "codePhase": "ENVOI",
    "templateName": "Modele SMS 118712"
  },
  {
    "access": 1,
    "display": 1,
    "idTemplate": 79,
    "codePhase": "ENVOI",
    "templateName": "Trusted profile"
  },
  {
    "access": 1,
    "display": 1,
    "idTemplate": 126,
    "codePhase": "ENVOI",
    "templateName": "Auto-promo sms 118712"
  }
]